1 10 20
100 200 125
201 210 89
900 1000 174
1001 1203 182
1302 1405 177
1502 1670 180
1809 2034 175
2100 2301 183
2451 2690 209
2700 3000 217
3102 3124 155
3450 3609 194
3780 4009 189
4205 4409 215
4562 4758 184
4890 5204 210
5346 5534 192
5689 5803 205
6320 6578 213
6780 6980 257
7123 7311 195
7432 7563 208
7689 7924 221
8370 8530 203
8670 8800 216
8912 8900 141
9000 8900 247
9300 9600 198
10000 10300 242
10500 10800 255
11000 11402 237
11523 11798 219
11945 12200 250
12300 12580 263
12920 13309 276
13098 13400 276
13500 13801 245
14000 14501 209
14780 14999 240
15000 15500 271
16000 16500 266
16500 17000 266
17000 17500 235
18000 18500 248
18500 19000 261
19500 20000 274
20000 25000 282
25000 30000 308
30000 35000 311
40000 45000 288
50000 55000 340
60000 65000 335
70000 75000 325
80000 85000 320
90000 95000 333
95000 99899 328
99899 99999 227
100000 101000 341
102000 103000 310
103000 104000 248
104000 105000 310
105000 106000 341
107000 108000 292
109000 110000 310
111000 112000 323
112000 113000 323
113000 114000 292
115000 116000 349
116000 117000 305
118000 119000 336
119000 120000 305
121000 122000 336
123000 124000 331
124000 125000 287
128000 129000 331
130000 131200 331
140200 143900 375
145000 146000 295
147890 149800 326
150000 152000 370
155000 156000 308
158090 160000 352
170809 173430 347
175000 178000 334
180000 185000 365
185000 190000 360
200000 201000 342
204000 208000 373
209000 213000 355
219000 224000 355
225000 300000 443
302000 305000 340
306000 309000 371
314000 319000 353
324000 329000 384
350000 356000 379
360000 365000 410
370000 374000 392
378000 382000 379
387000 391000 436
392000 395000 405
400000 401000 374
410290 415000 374
420000 425000 418
430000 435000 387
440000 445000 356
450000 455000 387
460000 465000 444
470000 475000 382
480000 485000 413
490000 495000 426
500000 501000 364
501000 502000 320
503000 504000 320
505000 506700 364
507000 508900 364
509000 512000 470
514000 516800 395
518000 521000 439
525000 535000 408
545000 565000 452
575000 585000 434
595000 600000 372
605000 610000 403
615000 620000 447
625000 630000 509
635000 640000 416
645000 650000 385
655000 660000 429
670000 675000 367
680000 685000 380
690000 695000 442
700000 710000 504
715000 720000 380
725000 730000 362
735000 740000 424
745000 750000 393
755000 760000 362
765000 770000 468
775000 780000 437
785000 790000 406
800000 805090 406
810000 815000 406
820000 825000 450
830000 835000 419
840000 845000 388
850000 855000 419
860000 865000 357
870000 874000 432
879000 883000 357
886000 890000 445
892000 895000 370
895000 898000 370
900000 909099 445
910000 915000 476
920000 926000 445
931500 937000 414
940000 945000 383
949000 952000 414
956000 960000 352
964500 968000 365
970000 974000 458
978000 983000 427
989000 993000 352
999800 999999 259
100000 93456 328
