..................
----------------------------------------------------------------------
Ran 18 tests in 0.058s

OK
Name             Stmts   Miss Branch BrPart  Cover   Missing
------------------------------------------------------------
Collatz.py          52      0     20      1    99%   48->exit
TestCollatz.py      75      0      0      0   100%
------------------------------------------------------------
TOTAL              127      0     20      1    99%
